TidyDensity Update – Steve’s Data Tips and Tricks
…
             V1         V2         V3         V4
0%   -0.9980322 -0.9980322 -0.9980322 -0.9980322
25%  -0.5656369 -0.5656369 -0.5656369 -0.5656369
50%   0.2846513  0.2846513  0.2846513  0.2846513
75%   0.8648786  0.8648786  0.8648786  0.8648786
100%  1.2291761  1.2291761  1.2291761  1.2291761

# Return in tibble format
quantile_normalize(
data.frame(rand_norm_1 = rnorm(30),
           rand_norm_b = rnorm(30)),
           .return_tibble = TRUE)

# A tibble: 30 × 2
   rand_norm_1 rand_norm_b
         <dbl>       <dbl>
 1     -0.589       1.28  
 2     -1.17        1.04  
 3     -1.85       -0.0239
 4      0.899      -0.232 
 5      0.204       1.21  
 6      1.21       -0.796 
 7     -1.60        1.11  
 8      0.0248     -1.17  
 9     -1.22       -0.710 
10     -1.00        0.370 
# ℹ 20 more rows
…
Practical Examples

# Traditional mixture model (default behavior)
mix_stack <- tidy_mixture_density(
  rnorm(100, 0, 1), 
  tidy_normal(.mean = 5, .sd = 1),
  .combination_type = "stack"
)
mix_stack

$data
$data$dist_tbl
# A tibble: 150 × 2
       x      y
   <int>  <dbl>
 1     1 -0.609
 2     2 -0.370
 3     3 -0.308
 4     4 -0.786
 5     5  0.437
 6     6 -0.552
 7     7  0.303
 8     8 -0.652
 9     9 -0.144
10    10 -0.260
# ℹ 140 more rows

$data$dens_tbl
# A tibble: 150 × 2
       x        y
   <dbl>    <dbl>
 1 -4.28 0.000118
 2 -4.19 0.000171
 3 -4.10 0.000245
 4 -4.01 0.000349
 5 -3.91 0.000489
 6 -3.82 0.000677
 7 -3.73 0.000931
 8 -3.63 0.00126 
 9 -3.54 0.00170 
10 -3.45 0.00226 
# ℹ 140 more rows
…
$data$input_data$`tidy_normal(.mean = 5, .sd = 1)`
# A tibble: 50 × 7
   sim_number     x     y    dx       dy      p     q
   <fct>      <int> <dbl> <dbl>    <dbl>  <dbl> <dbl>
 1 1              1  6.52  2.33 0.000974 0.936   6.52
 2 1              2  3.39  2.45 0.00261  0.0538  3.39
 3 1              3  5.54  2.57 0.00629  0.706   5.54
 4 1              4  5.40  2.69 0.0136   0.655   5.40
 5 1              5  5.64  2.81 0.0262   0.739   5.64
 6 1              6  5.40  2.93 0.0457   0.656   5.40
 7 1              7  5.02  3.05 0.0718   0.508   5.02
 8 1              8  4.34  3.17 0.102    0.254   4.34
 9 1              9  4.81  3.29 0.133    0.423   4.81
10 1             10  4.08  3.41 0.160    0.179   4.08
# ℹ 40 more rows
…
$input_fns
[1] "rnorm(100, 0, 1), tidy_normal(.mean = 5, .sd = 1)"

# Additive mixture for modeling combined effects
mix_additive <- tidy_mixture_density(
  rnorm(50), 
  rbeta(50, 0.5, 0.5), 
  .combination_type = "add"
)
mix_additive

$data
$data$dist_tbl
# A tibble: 50 × 2
       x       y
   <int>   <dbl>
 1     1  0.172 
 2     2 -0.385 
 3     3  0.388 
 4     4  0.168 
 5     5 -1.48  
 6     6  0.743 
 7     7  0.859 
 8     8  0.783 
 9     9 -0.0703
10    10 -0.992 
# ℹ 40 more rows

$data$dens_tbl
# A tibble: 50 × 2
       x        y
   <dbl>    <dbl>
 1 -2.41 0.000289
 2 -2.28 0.000893
 3 -2.16 0.00236 
 4 -2.04 0.00531 
 5 -1.91 0.0103  
 6 -1.79 0.0174  
 7 -1.66 0.0259  
 8 -1.54 0.0353  
 9 -1.41 0.0461  
10 -1.29 0.0597  
# ℹ 40 more rows
…
$input_fns
[1] "rnorm(50), rbeta(50, 0.5, 0.5)"

# Multiplicative interactions
mix_multiplicative <- tidy_mixture_density(
  rnorm(50), 
  rbeta(50, 0.5, 0.5), 
  .combination_type = "multiply"
)
mix_multiplicative

$data
$data$dist_tbl
# A tibble: 50 × 2
       x       y
   <int>   <dbl>
 1     1  0.0128
 2     2 -0.352 
 3     3 -0.228 
 4     4  0.0318
 5     5  0.0846
 6     6  0.0148
 7     7  0.301 
 8     8  0.125 
 9     9 -0.196 
10    10  1.58  
# ℹ 40 more rows

$data$dens_tbl
# A tibble: 50 × 2
        x       y
    <dbl>   <dbl>
 1 -1.49  0.00113
 2 -1.42  0.00577
 3 -1.34  0.0217 
 4 -1.27  0.0605 
 5 -1.19  0.127  
 6 -1.12  0.205  
 7 -1.04  0.261  
 8 -0.968 0.272  
 9 -0.893 0.243  
10 -0.818 0.197  
# ℹ 40 more rows
…
$input_fns
[1] "rnorm(50), rbeta(50, 0.5, 0.5)"

# Subtration for differencing
mix_subtract <- tidy_mixture_density(
        rnorm(50),
        rbeta(50, 0.5, 0.5),
        .combination_type = "subtract"
)
mix_subtract

$data
$data$dist_tbl
# A tibble: 50 × 2
       x       y
   <int>   <dbl>
 1     1 -0.934 
 2     2  0.0255
 3     3 -0.807 
 4     4  0.639 
 5     5 -0.151 
 6     6  0.261 
 7     7  0.383 
 8     8 -1.06  
 9     9 -1.17  
10    10  0.868 
# ℹ 40 more rows

$data$dens_tbl
# A tibble: 50 × 2
       x        y
   <dbl>    <dbl>
 1 -3.33 0.000267
 2 -3.22 0.000687
 3 -3.10 0.00159 
 4 -2.99 0.00333 
 5 -2.88 0.00633 
 6 -2.76 0.0109  
 7 -2.65 0.0173  
 8 -2.54 0.0252  
 9 -2.43 0.0342  
10 -2.31 0.0442  
# ℹ 40 more rows
…
$input_fns
[1] "rnorm(50), rbeta(50, 0.5, 0.5)"

# Division for ratios
mix_divide <- tidy_mixture_density(
        rnorm(50),
        rbeta(50, 0.5, 0.5),
        .combination_type = "divide"
)
mix_divide

$data
$data$dist_tbl
# A tibble: 50 × 2
       x         y
   <int>     <dbl>
 1     1     3.00 
 2     2    -1.79 
 3     3     0.603
 4     4     1.36 
 5     5 25721.   
 6     6  9101.   
 7     7     1.80 
 8     8    -0.620
 9     9    -0.698
10    10     1.73 
# ℹ 40 more rows

$data$dens_tbl
# A tibble: 50 × 2
        x        y
    <dbl>    <dbl>
 1 -445.  6.46e- 3
 2   89.1 5.56e- 4
 3  623.  2.49e-20
 4 1157.  3.46e-20
 5 1691.  5.86e-19
 6 2225.  1.04e-19
 7 2759.  1.06e-18
 8 3293.  0       
 9 3827.  0       
10 4362.  0       
# ℹ 40 more rows
…
