Steve’s Data Tips and Tricks - Simulating Time Series Model Forecasts with {healthyR.ts}
…
output$forecast_sim_tbl

# A tibble: 600 × 4
       x     y n        id
   <dbl> <dbl> <chr> <int>
 1 1961.  444. sim_1     1
 2 1961.  410. sim_1     2
 3 1961.  433. sim_1     3
 4 1961.  477. sim_1     4
 5 1961.  499. sim_1     5
 6 1961.  559. sim_1     6
 7 1962.  659. sim_1     7
 8 1962.  637. sim_1     8
 9 1962.  540. sim_1     9
10 1962.  510. sim_1    10
# … with 590 more rows
…
output$fitted_values_tbl

# A tibble: 144 × 2
   index     value
   <yearmon> <dbl>
 1 Jan 1949   112.
 2 Feb 1949   118.
 3 Mar 1949   132.
 4 Apr 1949   129.
 5 May 1949   121.
 6 Jun 1949   135.
 7 Jul 1949   148.
 8 Aug 1949   148.
 9 Sep 1949   136.
10 Oct 1949   119.
# … with 134 more rows
…
output$residual_values_tbl

# A tibble: 144 × 2
   index        value
   <yearmon>    <dbl>
 1 Jan 1949   0.0647 
 2 Feb 1949   0.0336 
 3 Mar 1949   0.0338 
 4 Apr 1949   0.0226 
 5 May 1949   0.0108 
 6 Jun 1949   0.0218 
 7 Jul 1949   0.0308 
 8 Aug 1949   0.0269 
 9 Sep 1949   0.0126 
10 Oct 1949  -0.00486
# … with 134 more rows

The input data itself

output$input_data

# A tibble: 144 × 2
   index     value
   <yearmon> <dbl>
 1 Jan 1949    112
 2 Feb 1949    118
 3 Mar 1949    132
 4 Apr 1949    129
 5 May 1949    121
 6 Jun 1949    135
 7 Jul 1949    148
 8 Aug 1949    148
 9 Sep 1949    136
10 Oct 1949    119
# … with 134 more rows

The time series simulations

output$sim_ts_tbl

# A tibble: 600 × 5
   index         x     y n        id
   <yearmon> <dbl> <dbl> <chr> <int>
 1 Jan 1961  1961.  444. sim_1     1
 2 Feb 1961  1961.  410. sim_1     2
 3 Mar 1961  1961.  433. sim_1     3
 4 Apr 1961  1961.  477. sim_1     4
 5 May 1961  1961.  499. sim_1     5
 6 Jun 1961  1961.  559. sim_1     6
 7 Jul 1961  1962.  659. sim_1     7
 8 Aug 1961  1962.  637. sim_1     8
 9 Sep 1961  1962.  540. sim_1     9
10 Oct 1961  1962.  510. sim_1    10
# … with 590 more rows
…
