Steve’s Data Tips and Tricks - How to Print All Rows of a Tibble in R: A Beginner’s Guide
…
Practical Examples

Example 1: Basic Tibble Printing

Here’s how you can print a tibble with default settings:

options(tibble.print_max = 10)
# Print with default settings
print(sample_tibble)

# A tibble: 100 × 2
       x      y
   <int>  <dbl>
 1     1  0.999
 2     2  0.608
 3     3  0.504
 4     4 -0.229
 5     5  0.161
 6     6 -1.62 
 7     7  1.51 
 8     8  0.808
 9     9 -1.71 
10    10  1.85 
# ℹ 90 more rows

Example 2: Printing with Custom Options

Adjust options to view all rows:

# Customize print options
options(tibble.width = Inf)

# Print the tibble
print(sample_tibble)

# A tibble: 100 × 2
       x      y
   <int>  <dbl>
 1     1  0.999
 2     2  0.608
 3     3  0.504
 4     4 -0.229
 5     5  0.161
 6     6 -1.62 
 7     7  1.51 
 8     8  0.808
 9     9 -1.71 
10    10  1.85 
# ℹ 90 more rows
…
