…
$cv_obj
# Monte Carlo cross-validation (0.75/0.25) with 25 resamples  
# A tibble: 25 × 2
   splits          id        
   <list>          <chr>     
 1 <split [84/28]> Resample01
 2 <split [84/28]> Resample02
 3 <split [84/28]> Resample03
 4 <split [84/28]> Resample04
 5 <split [84/28]> Resample05
 6 <split [84/28]> Resample06
 7 <split [84/28]> Resample07
 8 <split [84/28]> Resample08
 9 <split [84/28]> Resample09
10 <split [84/28]> Resample10
# … with 15 more rows

$tuned_results
# Tuning results
# Monte Carlo cross-validation (0.75/0.25) with 25 resamples  
# A tibble: 25 × 4
   splits          id         .metrics            .notes          
   <list>          <chr>      <list>              <list>          
 1 <split [84/28]> Resample01 <tibble [110 × 10]> <tibble [1 × 3]>
 2 <split [84/28]> Resample02 <tibble [110 × 10]> <tibble [1 × 3]>
 3 <split [84/28]> Resample03 <tibble [110 × 10]> <tibble [1 × 3]>
 4 <split [84/28]> Resample04 <tibble [110 × 10]> <tibble [1 × 3]>
 5 <split [84/28]> Resample05 <tibble [110 × 10]> <tibble [1 × 3]>
 6 <split [84/28]> Resample06 <tibble [110 × 10]> <tibble [1 × 3]>
 7 <split [84/28]> Resample07 <tibble [110 × 10]> <tibble [1 × 3]>
 8 <split [84/28]> Resample08 <tibble [110 × 10]> <tibble [1 × 3]>
 9 <split [84/28]> Resample09 <tibble [110 × 10]> <tibble [1 × 3]>
10 <split [84/28]> Resample10 <tibble [110 × 10]> <tibble [1 × 3]>
# … with 15 more rows
…
