Steve’s Data Tips and Tricks - {healthyR.ts}: The New and Improved Library for Time Series Analysis
…
.interactive - The default is FALSE, TRUE will produce an interactive plotly plot.

Examples

First make sure you install {healthyR.ts} if you do not yet already have it, otherwise update it to gain th enew functionality.

install.packages("healthyR.ts")

Now let’s take a look at ts_geometric_brownian_motion().

library(healthyR.ts)

ts_geometric_brownian_motion()

# A tibble: 2,600 × 3
   sim_number        t     y
   <fct>         <int> <dbl>
 1 sim_number 1      1   100
 2 sim_number 2      1   100
 3 sim_number 3      1   100
 4 sim_number 4      1   100
 5 sim_number 5      1   100
 6 sim_number 6      1   100
 7 sim_number 7      1   100
 8 sim_number 8      1   100
 9 sim_number 9      1   100
10 sim_number 10     1   100
# … with 2,590 more rows
…
rn <- rnorm(31)
df <- data.frame(
date_col = seq.Date(from = as.Date("2022-01-01"),
                      to = as.Date("2022-01-31"),
                      by = "day"),
 value = rn
)

ts_brownian_motion_augment(
  .data = df,
  .date_col = date_col,
  .value_col = value
)

# A tibble: 1,041 × 3
   sim_number  date_col    value
   <fct>       <date>      <dbl>
 1 actual_data 2022-01-01 -0.303
 2 actual_data 2022-01-02 -1.17 
 3 actual_data 2022-01-03 -1.44 
 4 actual_data 2022-01-04 -0.682
 5 actual_data 2022-01-05 -2.31 
 6 actual_data 2022-01-06 -1.19 
 7 actual_data 2022-01-07 -0.454
 8 actual_data 2022-01-08 -1.83 
 9 actual_data 2022-01-09  0.659
10 actual_data 2022-01-10 -0.150
# … with 1,031 more rows
…
rn <- rnorm(31)
df <- data.frame(
date_col = seq.Date(from = as.Date("2022-01-01"),
                      to = as.Date("2022-01-31"),
                      by = "day"),
 value = rn
)

ts_geometric_brownian_motion_augment(
  .data = df,
  .date_col = date_col,
  .value_col = value
)

# A tibble: 291 × 3
   sim_number  date_col    value
   <fct>       <date>      <dbl>
 1 actual_data 2022-01-01 -1.47 
 2 actual_data 2022-01-02 -1.63 
 3 actual_data 2022-01-03  1.01 
 4 actual_data 2022-01-04  1.44 
 5 actual_data 2022-01-05 -1.05 
 6 actual_data 2022-01-06 -0.599
 7 actual_data 2022-01-07 -0.393
 8 actual_data 2022-01-08  1.06 
 9 actual_data 2022-01-09 -0.121
10 actual_data 2022-01-10 -0.349
# … with 281 more rows
…
