Steve’s Data Tips and Tricks - Introducing healthyR.ts: A Comprehensive R Package for Time Series Analysis
…
ts_vva_plot(
  .data = df,
  .date_col = x,
  .value_col = cum_y
)

$data
$data$augmented_data_tbl
# A tibble: 600 × 3
       x name          value
   <dbl> <fct>         <dbl>
 1     1 Cum_y         944. 
 2     1 Velocity       NA  
 3     1 Acceleration   NA  
 4     2 Cum_y         922. 
 5     2 Velocity      -21.7
 6     2 Acceleration   NA  
 7     3 Cum_y        1066. 
 8     3 Velocity      144. 
 9     3 Acceleration  165. 
10     4 Cum_y        1073. 
# ℹ 590 more rows
…
