Steve’s Data Tips and Tricks - An Update on {tidyAML}
…
And finally the predictions (this one I am probably going to change up).

frt_tbl %>% slice(1) %>% select(pred_wflw) %>% pull() %>% pluck(1)

# A tibble: 24 × 1
   .pred
   <dbl>
 1  17.4
 2  28.4
 3  17.2
 4  10.7
 5  13.4
 6  17.0
 7  22.8
 8  14.3
 9  22.4
10  15.5
# … with 14 more rows
…
