Steve’s Data Tips and Tricks - The building of {tidyAML}
…
Inside of the pmap we use cur_data() to get the current line where we match the function using match.fun (which takes a character string of the function, this means the library needs to be loaded) we supply the column it is in and then we supply the arguments we want.

We give it a numeric model id

We then ensure that the .model_id column is first.

Example

Let’s see it in action!

library(tidyAML) # Not yet available, you can install from GitHub though

fast_regression_parsnip_spec_tbl()

# A tibble: 46 × 5
   .model_id .parsnip_engine .parsnip_mode .parsnip_fns model_spec
       <int> <chr>           <chr>         <chr>        <list>    
 1         1 lm              regression    linear_reg   <spec[+]> 
 2         2 brulee          regression    linear_reg   <spec[+]> 
 3         3 gee             regression    linear_reg   <spec[+]> 
 4         4 glm             regression    linear_reg   <spec[+]> 
 5         5 glmer           regression    linear_reg   <spec[+]> 
 6         6 glmnet          regression    linear_reg   <spec[+]> 
 7         7 gls             regression    linear_reg   <spec[+]> 
 8         8 lme             regression    linear_reg   <spec[+]> 
 9         9 lmer            regression    linear_reg   <spec[+]> 
10        10 stan            regression    linear_reg   <spec[+]> 
# … with 36 more rows
…
