Steve’s Data Tips and Tricks - Summary Statistics with {TidyDensity}
…
$sim_number_4
     2.5%     97.5% 
-1.258156  2.098923 

$sim_number_5
     2.5%     97.5% 
-1.309749  1.943384 

Tibble output with tibble

tidy_stat_tbl(
  tn, y, f, "tibble", na.rm = nr
)

# A tibble: 25 × 3
   sim_number name        f
   <fct>      <chr>   <dbl>
 1 1          0%    -1.97  
 2 1          25%   -0.559 
 3 1          50%   -0.0726
 4 1          75%    0.698 
 5 1          100%   2.17  
 6 2          0%    -2.31  
 7 2          25%   -0.361 
 8 2          50%    0.153 
 9 2          75%    0.629 
10 2          100%   2.19  
# … with 15 more rows
…
Tibble output with data.table The output object is a tibble but data.table is used to perform the calculations which can be magnitudes faster when simulations are large. I will showcase down the post.

tidy_stat_tbl(
  tn, y, f, .use_data_table = TRUE, na.rm = nr
)

# A tibble: 25 × 3
   sim_number name        f
   <fct>      <fct>   <dbl>
 1 1          0%    -1.97  
 2 1          25%   -0.559 
 3 1          50%   -0.0726
 4 1          75%    0.698 
 5 1          100%   2.17  
 6 2          0%    -2.31  
 7 2          25%   -0.361 
 8 2          50%    0.153 
 9 2          75%    0.629 
10 2          100%   2.19  
# … with 15 more rows
…
