PCA with healthyR.ai – Steve’s Data Tips and Tricks
…
Operations:

Timeseries signature features from date_col
Variables removed matches("(iso$)|(xts$)|(hour)|(min)|(sec)|(am.pm)")
Centering for recipes::all_numeric()
Scaling for recipes::all_numeric()
Sparse, unbalanced variable filter on recipes::all_numeric()
PCA extraction with recipes::all_numeric_predictors()

Variable Loadings

output_list$variable_loadings

# A tibble: 169 × 4
   terms                 value component id       
   <chr>                 <dbl> <chr>     <chr>    
 1 date_col_index.num -0.00137 PC1       pca_bVc37
 2 date_col_year       0.0529  PC1       pca_bVc37
 3 date_col_half      -0.385   PC1       pca_bVc37
 4 date_col_quarter   -0.434   PC1       pca_bVc37
 5 date_col_month     -0.437   PC1       pca_bVc37
 6 date_col_wday      -0.0159  PC1       pca_bVc37
 7 date_col_qday      -0.0608  PC1       pca_bVc37
 8 date_col_yday      -0.437   PC1       pca_bVc37
 9 date_col_mweek      0.0537  PC1       pca_bVc37
10 date_col_week      -0.438   PC1       pca_bVc37
# … with 159 more rows

Variable Variance

output_list$variable_variance

# A tibble: 52 × 4
   terms       value component id       
   <chr>       <dbl>     <int> <chr>    
 1 variance 5.14             1 pca_bVc37
 2 variance 2.08             2 pca_bVc37
 3 variance 1.47             3 pca_bVc37
 4 variance 1.40             4 pca_bVc37
 5 variance 1.07             5 pca_bVc37
 6 variance 0.684            6 pca_bVc37
 7 variance 0.583            7 pca_bVc37
 8 variance 0.519            8 pca_bVc37
 9 variance 0.0534           9 pca_bVc37
10 variance 0.000231        10 pca_bVc37
# … with 42 more rows
…
Operations:

Timeseries signature features from date_col [trained]
Variables removed date_col_year.iso, date_col_month.xts, date_col_hour, d... [trained]
Centering for value, date_col_index.num, date_col_year, date_... [trained]
Scaling for value, date_col_index.num, date_col_year, date_... [trained]
Sparse, unbalanced variable filter removed date_col_day, date_col_mday, date_col_m... [trained]
PCA extraction with date_col_index.num, date_col_year, date_col_half... [trained]

PCA Juiced Estimates

output_list$pca_juiced_estimates

# A tibble: 76 × 8
   date_col              value date_col…¹ date_…²     PC1     PC2     PC3    PC4
   <dttm>                <dbl> <ord>      <ord>     <dbl>   <dbl>   <dbl>  <dbl>
 1 2018-06-01 00:00:00  0.676  June       Friday   0.733   1.23   -1.30    0.536
 2 2016-01-01 00:00:00 -0.133  January    Friday   3.51   -0.102  -0.500  -0.556
 3 2013-05-01 00:00:00  1.67   May        Wednes…  1.15   -2.07   -1.68   -0.319
 4 2018-10-01 00:00:00  0.337  October    Monday  -2.30    0.499   1.91   -1.92 
 5 2016-09-01 00:00:00 -0.130  September  Thursd… -1.08    0.0972  0.410   2.64 
 6 2016-07-01 00:00:00 -0.364  July       Friday  -0.0591  0.0211 -0.333   1.11 
 7 2020-02-01 00:00:00 -0.646  February   Saturd…  3.08    2.48   -0.0249  0.214
 8 2020-08-01 00:00:00 -1.42   August     Saturd… -0.491   2.60    0.142   1.88 
 9 2018-03-01 00:00:00  0.243  March      Thursd…  2.74    0.848  -1.53    0.260
10 2015-05-01 00:00:00 -0.0148 May        Friday   1.18   -0.636  -1.88   -0.147
# … with 66 more rows, and abbreviated variable names ¹​date_col_month.lbl,
#   ²​date_col_wday.lbl

PCA Baked Data

output_list$pca_baked_data

# A tibble: 95 × 8
   date_col            value date_col_month…¹ date_…²    PC1   PC2    PC3    PC4
   <dttm>              <dbl> <ord>            <ord>    <dbl> <dbl>  <dbl>  <dbl>
 1 2013-01-01 00:00:00 1.86  January          Tuesday  3.60  -2.64  1.13  -0.871
 2 2013-02-01 00:00:00 0.596 February         Friday   2.93  -1.76 -0.532  0.424
 3 2013-03-01 00:00:00 0.864 March            Friday   2.62  -1.95 -2.24   0.643
 4 2013-04-01 00:00:00 1.10  April            Monday   2.09  -2.68  1.39  -0.867
 5 2013-05-01 00:00:00 1.67  May              Wednes…  1.15  -2.07 -1.68  -0.319
 6 2013-06-01 00:00:00 0.923 June             Saturd…  0.612 -1.57 -2.01   0.919
 7 2013-07-01 00:00:00 1.29  July             Monday  -0.669 -2.41  2.29  -0.420
 8 2013-08-01 00:00:00 1.18  August           Thursd… -0.628 -1.76 -0.165  1.96 
 9 2013-09-01 00:00:00 0.714 September        Sunday  -1.11  -2.19  0.910  2.25 
10 2013-10-01 00:00:00 1.40  October          Tuesday -2.55  -1.91 -0.128 -1.48 
# … with 85 more rows, and abbreviated variable names ¹​date_col_month.lbl,
#   ²​date_col_wday.lbl
…
