Steve’s Data Tips and Tricks - Bootstrapping and Plots with TidyDensity
…
.num_sims - This is how many simulations you want to run of x. This is done with replacement. So this is dictating how many bootstrap samples of x we want to take.

.proportion - How much of the data do you want to sample? The default here is 80%

.distribution_type - What kind of distribution are you sampling from? Is it a continuous or discrete distribution. This is important for plotting.

The function returns a tibble with the bootstrap column as a list object. Lets take a look at tidy_bootstrap(x). We are going to set simulations to 50 instead of the default 2000.

library(TidyDensity)
tb <- tidy_bootstrap(x, .num_sims = 50)

tb

# A tibble: 50 × 2
   sim_number bootstrap_samples
   <fct>      <list>           
 1 1          <dbl [25]>       
 2 2          <dbl [25]>       
 3 3          <dbl [25]>       
 4 4          <dbl [25]>       
 5 5          <dbl [25]>       
 6 6          <dbl [25]>       
 7 7          <dbl [25]>       
 8 8          <dbl [25]>       
 9 9          <dbl [25]>       
10 10         <dbl [25]>       
# … with 40 more rows

The column bootstrap_samples holds the bootstrapped resamples of x at the given .proportion, in this instance, 80%.

From this point we can go straight into use the bootstrap_stat_plot() function if we choose. Under-the-hood it will make use of bootstrap_unnest_tbl(). All this function does is act as a helper to unnest the bootstrap_samples column of the returned tibble from tidy_bootstrap() Let’s take a look below.

tb %>%
  bootstrap_unnest_tbl()

# A tibble: 1,250 × 2
   sim_number     y
   <fct>      <dbl>
 1 1           22.8
 2 1           15.5
 3 1           21.5
 4 1           15  
 5 1           10.4
 6 1           22.8
 7 1           16.4
 8 1           30.4
 9 1           26  
10 1           19.2
# … with 1,240 more rows
…
