Exploring the Peaks: A Dive into the Triangular Distribution in TidyDensity – Steve’s Data Tips and Tricks
…
library(TidyDensity)

triangular_data <- tidy_triangular(
  .n = 100, 
  .min = 0, 
  .max = 1, 
  .mode = 0.5, 
  .num_sims = 1, 
  .return_tibble = TRUE
  )

triangular_data

# A tibble: 100 × 7
   sim_number     x     y      dx      dy     p     q
   <fct>      <int> <dbl>   <dbl>   <dbl> <dbl> <dbl>
 1 1              1 0.853 -0.140  0.00158 0.957 0.853
 2 1              2 0.697 -0.128  0.00282 0.816 0.697
 3 1              3 0.656 -0.116  0.00484 0.764 0.656
 4 1              4 0.518 -0.103  0.00805 0.536 0.518
 5 1              5 0.635 -0.0909 0.0130  0.733 0.635
 6 1              6 0.838 -0.0786 0.0202  0.948 0.838
 7 1              7 0.645 -0.0662 0.0304  0.748 0.645
 8 1              8 0.482 -0.0539 0.0444  0.464 0.482
 9 1              9 0.467 -0.0416 0.0627  0.437 0.467
10 1             10 0.599 -0.0293 0.0859  0.678 0.599
# ℹ 90 more rows
…
