Steve’s Data Tips and Tricks -
…
library(TidyDensity)

output <- tidy_mixture_density(
  rnorm(100, 0, 1), 
  tidy_normal(.mean = 5, .sd = 1)
)

As you can see, you can enter a function that outputs a numeric vector or you can use a {TidyDensity} distribution function.

Let’s take a look at the outputs.

output$data

$dist_tbl
# A tibble: 150 × 2
       x       y
   <int>   <dbl>
 1     1 -0.414 
 2     2 -1.71  
 3     3  0.0649
 4     4 -1.29  
 5     5  1.10  
 6     6 -1.05  
 7     7 -1.03  
 8     8  0.240 
 9     9 -1.74  
10    10 -1.11  
# … with 140 more rows

$dens_tbl
# A tibble: 150 × 2
       x         y
   <dbl>     <dbl>
 1 -5.07 0.0000673
 2 -4.96 0.0000995
 3 -4.86 0.000146 
 4 -4.75 0.000210 
 5 -4.65 0.000298 
 6 -4.55 0.000419 
 7 -4.44 0.000580 
 8 -4.34 0.000795 
 9 -4.23 0.00107  
10 -4.13 0.00143  
# … with 140 more rows
…
$input_data$`tidy_normal(.mean = 5, .sd = 1)`
# A tibble: 50 × 7
   sim_number     x     y    dx       dy      p     q
   <fct>      <int> <dbl> <dbl>    <dbl>  <dbl> <dbl>
 1 1              1  4.56  1.70 0.000283 0.331   4.56
 2 1              2  3.39  1.85 0.00100  0.0534  3.39
 3 1              3  4.16  1.99 0.00289  0.201   4.16
 4 1              4  5.43  2.14 0.00683  0.665   5.43
 5 1              5  5.03  2.28 0.0133   0.512   5.03
 6 1              6  5.63  2.43 0.0215   0.736   5.63
 7 1              7  4.40  2.58 0.0300   0.273   4.40
 8 1              8  4.39  2.72 0.0378   0.270   4.39
 9 1              9  4.72  2.87 0.0459   0.390   4.72
10 1             10  5.73  3.01 0.0568   0.767   5.73
# … with 40 more rows
…
