Steve’s Data Tips and Tricks - Generate Random Walk Data with {healthyR.ts}
…
The underlying data of this function is generated by rnorm()

Example

Let’s take a look at an example and see some visuals.

library(healthyR.ts)
library(ggplot2)

df <- ts_random_walk(.num_walks = 100)

df

# A tibble: 10,000 × 4
     run     x       y cum_y
   <dbl> <dbl>   <dbl> <dbl>
 1     1     1 -0.128   872.
 2     1     2  0.0231  892.
 3     1     3  0.0803  964.
 4     1     4 -0.162   808.
 5     1     5  0.0580  855.
 6     1     6 -0.109   762.
 7     1     7  0.0617  809.
 8     1     8  0.0988  888.
 9     1     9  0.0917  970.
10     1    10  0.127  1093.
# … with 9,990 more rows
…
