How to Use runif Function in R With Examples – Steve’s Data Tips and Tricks
…
This added information can be useful when exploring the distribution in more depth .

Example 1: Generating a Tibble of Uniform Random Numbers

The first example with tidy_uniform() illustrates a simple call that returns a tibble. The following code snippet demonstrates how to generate 50 random numbers:

# Load necessary libraries
library(TidyDensity)
library(dplyr)
# Assuming tidy_uniform is available from your analysis package
# Generate a tibble with 50 random uniform values using tidy_uniform()
result_tbl <- tidy_uniform(.n = 50, .min = 0, .max = 1)
print(result_tbl)

# A tibble: 50 × 7
   sim_number     x      y      dx      dy      p      q
   <fct>      <int>  <dbl>   <dbl>   <dbl>  <dbl>  <dbl>
 1 1              1 0.440  -0.334  0.00153 0.440  0.440 
 2 1              2 0.397  -0.300  0.00371 0.397  0.397 
 3 1              3 0.372  -0.265  0.00832 0.372  0.372 
 4 1              4 0.529  -0.231  0.0172  0.529  0.529 
 5 1              5 0.0738 -0.196  0.0332  0.0738 0.0738
 6 1              6 0.717  -0.162  0.0591  0.717  0.717 
 7 1              7 0.243  -0.128  0.0980  0.243  0.243 
 8 1              8 0.844  -0.0933 0.152   0.844  0.844 
 9 1              9 0.995  -0.0590 0.219   0.995  0.995 
10 1             10 0.105  -0.0246 0.298   0.105  0.105 
# ℹ 40 more rows

The output is a tibble so this format makes it easier to integrate analyses across other tidy tools and pipelines.

Example 2: Simulating Multiple Runs

Using tidy_uniform(), you can simulate several runs of random figures easily. Here is an example where we generate random numbers from 3 separate simulations:

# Generate a tibble with 3 simulation runs; each simulation has 30 random numbers
multi_sim_tbl <- tidy_uniform(.n = 30, .min = 2, .max = 8, .num_sims = 3)
print(multi_sim_tbl)

# A tibble: 90 × 7
   sim_number     x     y      dx       dy      p     q
   <fct>      <int> <dbl>   <dbl>    <dbl>  <dbl> <dbl>
 1 1              1  3.91 -0.383  0.000537 0.318   3.91
 2 1              2  5.50 -0.0157 0.00208  0.583   5.50
 3 1              3  2.31  0.352  0.00663  0.0513  2.31
 4 1              4  3.50  0.720  0.0175   0.250   3.50
 5 1              5  2.09  1.09   0.0383   0.0147  2.09
 6 1              6  3.31  1.45   0.0708   0.218   3.31
 7 1              7  5.14  1.82   0.112    0.524   5.14
 8 1              8  3.98  2.19   0.155    0.330   3.98
 9 1              9  6.45  2.56   0.194    0.741   6.45
10 1             10  7.73  2.93   0.223    0.956   7.73
# ℹ 80 more rows
…
 [1] 128.7578 178.8305 140.8977 188.3017 194.0467 104.5556 152.8105 189.2419
 [9] 155.1435 145.6615 195.6833 145.3334 167.7571 157.2633 110.2925 189.9825
[17] 124.6088 104.2060 132.7921 195.4504

print(paste("Standard Deviation:", std_dev))

[1] "Standard Deviation: 31.3471021463883"

# Part 2 - Using tidy_uniform()
# Make sure that tidy_uniform() is available and the necessary library is loaded
set.seed(123)
tidy_data <- tidy_uniform(.n = 100, .min = -5, .max = 5, .num_sims = 2)
print(tidy_data)

# A tibble: 200 × 7
   sim_number     x      y    dx       dy      p      q
   <fct>      <int>  <dbl> <dbl>    <dbl>  <dbl>  <dbl>
 1 1              1 -2.12  -8.06 0.000107 0.288  -2.12 
 2 1              2  2.88  -7.89 0.000178 0.788   2.88 
 3 1              3 -0.910 -7.73 0.000290 0.409  -0.910
 4 1              4  3.83  -7.57 0.000461 0.883   3.83 
 5 1              5  4.40  -7.41 0.000717 0.940   4.40 
 6 1              6 -4.54  -7.25 0.00109  0.0456 -4.54 
 7 1              7  0.281 -7.08 0.00162  0.528   0.281
 8 1              8  3.92  -6.92 0.00237  0.892   3.92 
 9 1              9  0.514 -6.76 0.00338  0.551   0.514
10 1             10 -0.434 -6.60 0.00472  0.457  -0.434
# ℹ 190 more rows
…
