A New Package for the African Stock Market {BRVM} – Steve’s Data Tips and Tricks
…
This function will get the data of the companies listed on the BVRM stock exchange in Rich Bourse website. The function takes a single parameter, .symbol (which represents the “Ticker”). The function will automatically format tickers you enter in uppercase using toupper() and then ensure that the passed ticker is in a Google spreadsheet of allowed tickers.

.symbol : A vector of symbols, like: c(“BICC”,“XOM”,“SlbC”) ;

.from : A quoted start date, ie. “2020-01-01” or “2020/01/01”. The date must be in ymd format “YYYY-MM-DD” or “YYYY/MM/DD” ;

.to : A quoted end date, ie. “2022-01-31” or “2022/01/31”. The date must be in ymd format “YYYY-MM-DD” or “YYYY/MM/DD”.

#' Displaying data of SONATEL Senegal stock
BRVM_get(.symbol = "snts")

[1] "SNTS"

# A tibble: 251 × 6
   Date        Open  High   Low Close Volume
   <date>     <dbl> <dbl> <dbl> <dbl>  <dbl>
 1 2022-04-06 15800 15895 15750 15800   7436
 2 2022-04-07 15800 15900 15750 15900   1265
 3 2022-04-08 15900 15995 15800 15900   1164
 4 2022-04-11 15895 15900 15800 15800   4252
 5 2022-04-12 15800 15800 15780 15800   6561
 6 2022-04-13 15800 15865 15795 15850   5409
 7 2022-04-14 15855 15900 15850 15900  16957
 8 2022-04-15 15995 15995 15900 15900    791
 9 2022-04-19 15900 15995 15895 15900  31217
10 2022-04-20 15900 15995 15895 15990  32322
# ℹ 241 more rows
…
