Steve’s Data Tips and Tricks - Creating and Predicting Fast Regression Parsnip Models with {tidyAML}
…
Call:
stats::lm(formula = ..y ~ ., data = data)

Coefficients:
(Intercept)          cyl         disp           hp         drat           wt  
 -15.077267     1.107474     0.001161    -0.001014     4.010199    -1.280324  
       qsec           vs           am         gear         carb  
   0.512318    -0.488014     2.430052     4.353568    -2.546043  

And lastly tne predicted workflow column.

fast_reg_tbl %>% slice(1) %>% pull(pred_wflw) %>% pluck(1)

# A tibble: 24 × 1
   .pred
   <dbl>
 1  24.7
 2  28.2
 3  18.9
 4  12.0
 5  14.8
 6  15.4
 7  14.7
 8  20.0
 9  11.2
10  19.1
# … with 14 more rows
…
