Simplify Regression Modeling with tidyAML’s fast_regression() – Steve's Data Tips and Tricks
…
Efficiency: Quickly set up and evaluate multiple regression models with different specifications.

Flexibility: Supports a wide range of engines and functions, allowing for comprehensive model exploration.

Integration: Seamlessly integrates with the recipes, parsnip, and rsample packages, making it a versatile tool in your modeling arsenal.

Let’s Inspect

Now that we have our models, let’s take a closer look at the results. We can use the extract_regression_residuals() function to extract the residuals from the fitted models along with the original and predicted data:

extract_regression_residuals(fast_reg_tbl)

[[1]]
# A tibble: 32 × 4
   .model_type     .actual .predicted  .resid
   <chr>             <dbl>      <dbl>   <dbl>
 1 lm - linear_reg    21.4       21.1  0.276 
 2 lm - linear_reg    21         23.9 -2.91  
 3 lm - linear_reg    19.7       18.7  1.01  
 4 lm - linear_reg    18.1       19.7 -1.55  
 5 lm - linear_reg    14.7       12.0  2.73  
 6 lm - linear_reg    24.4       23.7  0.694 
 7 lm - linear_reg    22.8       24.3 -1.48  
 8 lm - linear_reg    13.3       12.5  0.820 
 9 lm - linear_reg    10.4       13.2 -2.85  
10 lm - linear_reg    19.2       19.3 -0.0583
# ℹ 22 more rows

[[2]]
# A tibble: 32 × 4
   .model_type      .actual .predicted  .resid
   <chr>              <dbl>      <dbl>   <dbl>
 1 glm - linear_reg    21.4       21.1  0.276 
 2 glm - linear_reg    21         23.9 -2.91  
 3 glm - linear_reg    19.7       18.7  1.01  
 4 glm - linear_reg    18.1       19.7 -1.55  
 5 glm - linear_reg    14.7       12.0  2.73  
 6 glm - linear_reg    24.4       23.7  0.694 
 7 glm - linear_reg    22.8       24.3 -1.48  
 8 glm - linear_reg    13.3       12.5  0.820 
 9 glm - linear_reg    10.4       13.2 -2.85  
10 glm - linear_reg    19.2       19.3 -0.0583
# ℹ 22 more rows
…
