Data Imputation and Scaling with healthyR.ai: A Guide for R Programmers – Steve’s Data Tips and Tricks
…
rec_obj <- recipe(value ~ date_col, data = data_tbl)
rec_obj

df_tbl <- tibble(
  impute_type = c("bagged","knn","linear","mean","median","roll"),
  rec_obj = list(rec_obj),
  data = list(data_tbl)
)
df_tbl[1,][[3]][[1]]

# A tibble: 50 × 2
   date_col     value
   <date>       <dbl>
 1 2013-01-01  0.748 
 2 2013-02-01  0.623 
 3 2013-03-01  0.987 
 4 2013-04-01  0.984 
 5 2013-05-01  0.643 
 6 2013-06-01  0.383 
 7 2013-07-01  0.308 
 8 2013-08-01  0.631 
 9 2013-09-01  0.0973
10 2013-10-01 NA     
# ℹ 40 more rows
…
