Moving Average Plots with {healthyR.ts} – Steve’s Data Tips and Tricks
…
output$data_diff_xts_b |> head()

           diff_b
1949-01-01     NA
1949-02-01     NA
1949-03-01     NA
1949-04-01     NA
1949-05-01     NA
1949-06-01     NA

output$data_summary_tbl

# A tibble: 144 × 5
   date_col   value  ma12 diff_a diff_b
   <date>     <dbl> <dbl>  <dbl>  <dbl>
 1 1949-01-01   112    NA   0         0
 2 1949-02-01   118    NA   5.36      0
 3 1949-03-01   132    NA  11.9       0
 4 1949-04-01   129    NA  -2.27      0
 5 1949-05-01   121    NA  -6.20      0
 6 1949-06-01   135    NA  11.6       0
 7 1949-07-01   148    NA   9.63      0
 8 1949-08-01   148    NA   0         0
 9 1949-09-01   136    NA  -8.11      0
10 1949-10-01   119    NA -12.5       0
# … with 134 more rows
…
