Steve’s Data Tips and Tricks - Discrete Fourier Vec with healthyR.ai
…
data_tbl <- tibble(
  date_col = seq.Date(
    from = start_date, 
    length.out = len_out, 
    by = by_unit
  ),
  a = rnorm(len_out, sd = 2),
  fv_sin = hai_fourier_discrete_vec(a, 12, 1, "sin"),
  fv_cos = hai_fourier_discrete_vec(a, 12, 1, "cos"),
  fv_sc  = hai_fourier_discrete_vec(a, 12, 1, "sincos")
)

data_tbl

# A tibble: 24 × 5
   date_col         a fv_sin fv_cos fv_sc
   <date>       <dbl>  <dbl>  <dbl> <dbl>
 1 2021-01-01 -0.486       0      1     0
 2 2021-02-01 -0.708       0      1     0
 3 2021-03-01 -0.119       0      1     0
 4 2021-04-01  0.0405      1      1     1
 5 2021-05-01  1.19        1      1     1
 6 2021-06-01  1.88        1      1     1
 7 2021-07-01 -1.32        0      1     0
 8 2021-08-01 -0.0214      0      1     0
 9 2021-09-01  2.80        1      1     1
10 2021-10-01  1.67        1      1     1
# … with 14 more rows
…
