An Introduction to healthyR.ai – Steve’s Data Tips and Tricks
…
── Operations 

• Centering and scaling for: all_predictors()

• Centering for: recipes::all_numeric()

• Scaling for: recipes::all_numeric()

• Sparse, unbalanced variable filter on: recipes::all_numeric()

• PCA extraction with: recipes::all_numeric_predictors()

$variable_loadings
# A tibble: 100 × 4
   terms  value component id       
   <chr>  <dbl> <chr>     <chr>    
 1 cyl   -0.394 PC1       pca_RSbN6
 2 disp  -0.389 PC1       pca_RSbN6
 3 hp    -0.356 PC1       pca_RSbN6
 4 drat   0.321 PC1       pca_RSbN6
 5 wt    -0.358 PC1       pca_RSbN6
 6 qsec   0.248 PC1       pca_RSbN6
 7 vs     0.319 PC1       pca_RSbN6
 8 am     0.248 PC1       pca_RSbN6
 9 gear   0.238 PC1       pca_RSbN6
10 carb  -0.232 PC1       pca_RSbN6
# ℹ 90 more rows

$variable_variance
# A tibble: 40 × 4
   terms     value component id       
   <chr>     <dbl>     <int> <chr>    
 1 variance 6.09           1 pca_RSbN6
 2 variance 2.42           2 pca_RSbN6
 3 variance 0.619          3 pca_RSbN6
 4 variance 0.231          4 pca_RSbN6
 5 variance 0.215          5 pca_RSbN6
 6 variance 0.171          6 pca_RSbN6
 7 variance 0.112          7 pca_RSbN6
 8 variance 0.0848         8 pca_RSbN6
 9 variance 0.0409         9 pca_RSbN6
10 variance 0.0219        10 pca_RSbN6
# ℹ 30 more rows
…
── Operations 

• Centering and scaling for: cyl, disp, hp, drat, wt, qsec, ... | Trained

• Centering for: cyl, disp, hp, drat, wt, qsec, vs, am, gear, ... | Trained

• Scaling for: cyl, disp, hp, drat, wt, qsec, vs, am, gear, ... | Trained

• Sparse, unbalanced variable filter removed: <none> | Trained

• PCA extraction with: cyl, disp, hp, drat, wt, qsec, vs, am, ... | Trained

$pca_juiced_estimates
# A tibble: 25 × 3
       mpg    PC1      PC2
     <dbl>  <dbl>    <dbl>
 1 -1.67   -3.54  -0.529  
 2  0.0945  0.633  2.03   
 3  0.394   2.31  -1.60   
 4  0.178   1.88  -1.88   
 5  1.99    3.29   0.00164
 6  1.66    3.79   0.988  
 7 -0.670  -2.14  -0.503  
 8 -0.953  -3.45  -0.248  
 9  2.24    3.59   0.0209 
10  0.161   2.47   0.534  
# ℹ 15 more rows

$pca_baked_data
# A tibble: 32 × 3
       mpg    PC1    PC2
     <dbl>  <dbl>  <dbl>
 1  0.0945  0.633  2.03 
 2  0.0945  0.613  1.87 
 3  0.394   2.76   0.137
 4  0.161   0.228 -2.17 
 5 -0.288  -2.01  -0.623
 6 -0.388   0.191 -2.55 
 7 -1.02   -2.82   0.438
 8  0.660   1.91  -1.13 
 9  0.394   2.31  -1.60 
10 -0.205   0.622  0.125
# ℹ 22 more rows
…
$tuning_grid
# A tibble: 7 × 2
  num_terms prod_degree
      <int>       <int>
1         3           2
2         4           1
3         5           2
4         3           1
5         4           2
6         2           2
7         2           1

$cv_obj
# Monte Carlo cross-validation (0.75/0.25) with 25 resamples  
# A tibble: 25 × 2
   splits          id        
   <list>          <chr>     
 1 <split [84/28]> Resample01
 2 <split [84/28]> Resample02
 3 <split [84/28]> Resample03
 4 <split [84/28]> Resample04
 5 <split [84/28]> Resample05
 6 <split [84/28]> Resample06
 7 <split [84/28]> Resample07
 8 <split [84/28]> Resample08
 9 <split [84/28]> Resample09
10 <split [84/28]> Resample10
# ℹ 15 more rows

$tuned_results
# Tuning results
# Monte Carlo cross-validation (0.75/0.25) with 25 resamples  
# A tibble: 25 × 4
   splits          id         .metrics          .notes          
   <list>          <chr>      <list>            <list>          
 1 <split [84/28]> Resample01 <tibble [77 × 6]> <tibble [5 × 3]>
 2 <split [84/28]> Resample02 <tibble [77 × 6]> <tibble [5 × 3]>
 3 <split [84/28]> Resample03 <tibble [77 × 6]> <tibble [5 × 3]>
 4 <split [84/28]> Resample04 <tibble [77 × 6]> <tibble [5 × 3]>
 5 <split [84/28]> Resample05 <tibble [77 × 6]> <tibble [5 × 3]>
 6 <split [84/28]> Resample06 <tibble [77 × 6]> <tibble [5 × 3]>
 7 <split [84/28]> Resample07 <tibble [77 × 6]> <tibble [5 × 3]>
 8 <split [84/28]> Resample08 <tibble [77 × 6]> <tibble [5 × 3]>
 9 <split [84/28]> Resample09 <tibble [77 × 6]> <tibble [5 × 3]>
10 <split [84/28]> Resample10 <tibble [77 × 6]> <tibble [5 × 3]>
# ℹ 15 more rows
…
