Steve’s Data Tips and Tricks - Extracting Data from Another Workbook Using VBA and Executing It from R
…
This R script creates a COM object to interact with Excel, opens the workbook containing our VBA macro, runs the macro, and then quits Excel. Make sure to modify the excelFilePath to point to your actual workbook.

Now let’s see if it actually worked:

library(readxl)

f_path <- "C:/Users/ssanders/Documents/GitHub/steveondata/posts/2024-06-19/random_data.xlsx"
read_excel(f_path, sheet = "Sheet1", col_names = FALSE) 

New names:
• `` -> `...1`

# A tibble: 30 × 1
     ...1
    <dbl>
 1 -0.371
 2 -1.00 
 3  0.226
 4 -0.323
 5 -0.142
 6  1.19 
 7 -0.827
 8  0.715
 9 -0.105
10 -1.06 
# ℹ 20 more rows
…
