Steve’s Data Tips and Tricks - The new function on the block with tidyAML extract_regression_residuals()
…
This part involves using the fast_regression function. It performs a fast regression analysis using various engines specified by .parsnip_eng and specific functions specified by .parsnip_fns. In this case, it includes linear models (lm), generalized linear models (glm), Stan models (stan), and the Generalized Estimating Equations model (gee). The results are stored in the frt_tbl table.

In summary, the code is setting up a tidy modeling workflow, creating a recipe for predicting mpg based on other variables in the mtcars dataset, and then performing a fast regression using different engines and functions. The choice of engines and functions allows flexibility in exploring different modeling approaches.

Now that we have the output of fast_regression() stored in frt_tbl, we can use the function extract_wflw_pred() to extract the predictions and from the output. Let’s see how this works. First, the syntax:

extract_wflw_pred(.data, .model_id = NULL)

The function takes two arguments. The first argument is .data which is the output of fast_regression() or fast_classification(). The second argument is .model_id which is a numeric vector that defaults to NULL. If NULL then the function will extract none of the predictions from the output. If a numeric vector is provided then the function will extract the predictions for the models specified by the numeric vector. Let’s see how this works.

extract_wflw_pred(frt_tbl, 1)

# A tibble: 64 × 4
   .model_type     .data_category .data_type .value
   <chr>           <chr>          <chr>       <dbl>
 1 lm - linear_reg actual         actual       15.2
 2 lm - linear_reg actual         actual       10.4
 3 lm - linear_reg actual         actual       33.9
 4 lm - linear_reg actual         actual       32.4
 5 lm - linear_reg actual         actual       16.4
 6 lm - linear_reg actual         actual       21.5
 7 lm - linear_reg actual         actual       15.8
 8 lm - linear_reg actual         actual       15  
 9 lm - linear_reg actual         actual       14.7
10 lm - linear_reg actual         actual       10.4
# ℹ 54 more rows

extract_wflw_pred(frt_tbl, 1:2)

# A tibble: 128 × 4
   .model_type     .data_category .data_type .value
   <chr>           <chr>          <chr>       <dbl>
 1 lm - linear_reg actual         actual       15.2
 2 lm - linear_reg actual         actual       10.4
 3 lm - linear_reg actual         actual       33.9
 4 lm - linear_reg actual         actual       32.4
 5 lm - linear_reg actual         actual       16.4
 6 lm - linear_reg actual         actual       21.5
 7 lm - linear_reg actual         actual       15.8
 8 lm - linear_reg actual         actual       15  
 9 lm - linear_reg actual         actual       14.7
10 lm - linear_reg actual         actual       10.4
# ℹ 118 more rows

extract_wflw_pred(frt_tbl, 1:nrow(frt_tbl))

# A tibble: 256 × 4
   .model_type     .data_category .data_type .value
   <chr>           <chr>          <chr>       <dbl>
 1 lm - linear_reg actual         actual       15.2
 2 lm - linear_reg actual         actual       10.4
 3 lm - linear_reg actual         actual       33.9
 4 lm - linear_reg actual         actual       32.4
 5 lm - linear_reg actual         actual       16.4
 6 lm - linear_reg actual         actual       21.5
 7 lm - linear_reg actual         actual       15.8
 8 lm - linear_reg actual         actual       15  
 9 lm - linear_reg actual         actual       14.7
10 lm - linear_reg actual         actual       10.4
# ℹ 246 more rows
…
Ok, so what about this new function I talked about above? Well let’s go over it here. We have already discussed it’s syntax so no need to go over it again. Let’s just jump right into an example. This function will return the residuals for all models. We will slice off just the first model for demonstration purposes.

extract_regression_residuals(.model_tbl = frt_tbl, .pivot_long = FALSE)[[1]]

# A tibble: 32 × 4
   .model_type     .actual .predicted .resid
   <chr>             <dbl>      <dbl>  <dbl>
 1 lm - linear_reg    15.2       17.3 -2.09 
 2 lm - linear_reg    10.4       11.9 -1.46 
 3 lm - linear_reg    33.9       30.8  3.06 
 4 lm - linear_reg    32.4       28.0  4.35 
 5 lm - linear_reg    16.4       15.0  1.40 
 6 lm - linear_reg    21.5       22.3 -0.779
 7 lm - linear_reg    15.8       17.2 -1.40 
 8 lm - linear_reg    15         15.1 -0.100
 9 lm - linear_reg    14.7       10.9  3.85 
10 lm - linear_reg    10.4       10.8 -0.445
# ℹ 22 more rows

Now let’s set .pivot_long = TRUE:

extract_regression_residuals(.model_tbl = frt_tbl, .pivot_long = TRUE)[[1]]

# A tibble: 96 × 3
   .model_type     name       value
   <chr>           <chr>      <dbl>
 1 lm - linear_reg .actual    15.2 
 2 lm - linear_reg .predicted 17.3 
 3 lm - linear_reg .resid     -2.09
 4 lm - linear_reg .actual    10.4 
 5 lm - linear_reg .predicted 11.9 
 6 lm - linear_reg .resid     -1.46
 7 lm - linear_reg .actual    33.9 
 8 lm - linear_reg .predicted 30.8 
 9 lm - linear_reg .resid      3.06
10 lm - linear_reg .actual    32.4 
# ℹ 86 more rows
…
