Mastering Normal Distributions in R: A Comprehensive Guide to rnorm(), TidyDensity, and Statistical Analysis – Steve’s Data Tips and Tricks
…
.num_sims
Number of simulation runs
1

.return_tibble
Return as tibble?
TRUE

Example Output

library(TidyDensity)
tidy_normal()

# A tibble: 50 × 7
   sim_number     x       y    dx       dy      p       q
   <fct>      <int>   <dbl> <dbl>    <dbl>  <dbl>   <dbl>
 1 1              1 -1.26   -3.36 0.000390 0.104  -1.26  
 2 1              2  0.559  -3.22 0.00106  0.712   0.559 
 3 1              3 -1.63   -3.08 0.00260  0.0514 -1.63  
 4 1              4  1.67   -2.94 0.00574  0.953   1.67  
 5 1              5  1.12   -2.80 0.0115   0.869   1.12  
 6 1              6 -0.0232 -2.67 0.0207   0.491  -0.0232
 7 1              7 -0.0430 -2.53 0.0342   0.483  -0.0430
 8 1              8  1.28   -2.39 0.0517   0.900   1.28  
 9 1              9 -1.67   -2.25 0.0724   0.0472 -1.67  
10 1             10  0.217  -2.12 0.0949   0.586   0.217 
# ℹ 40 more rows
…
Performance
Fastest
Slightly more overhead

Advanced Applications

Monte Carlo Simulation

# Estimate probability using Monte Carlo simulation
set.seed(123)
tidy_mcmc_sampling(rnorm(100))

$mcmc_data
# A tibble: 4,000 × 3
   sim_number name              value
   <fct>      <fct>             <dbl>
 1 1          .sample_mean     0.0732
 2 1          .cum_stat_cmean  0.0732
 3 2          .sample_mean     0.162 
 4 2          .cum_stat_cmean  0.118 
 5 3          .sample_mean     0.0961
 6 3          .cum_stat_cmean  0.110 
 7 4          .sample_mean     0.0711
 8 4          .cum_stat_cmean  0.101 
 9 5          .sample_mean    -0.0186
10 5          .cum_stat_cmean  0.0768
# ℹ 3,990 more rows
…
