Creating Time Series in R with the ts() Function – Steve’s Data Tips and Tricks
…
convert_to_ts(.data = tidy_normal(.num_sims = 10),
              .return_ts = FALSE, 
              .pivot_longer = FALSE)

# A tibble: 50 × 10
       `1`    `2`    `3`      `4`    `5`    `6`     `7`    `8`     `9`   `10`
     <dbl>  <dbl>  <dbl>    <dbl>  <dbl>  <dbl>   <dbl>  <dbl>   <dbl>  <dbl>
 1  1.34    0.300  0.475 -3.07     1.35   1.18   0.403  -0.104 -0.347  -0.590
 2  0.153  -0.563 -1.28  -0.0429   0.354  1.24  -0.184   0.850  0.338  -0.700
 3 -0.448   0.160 -1.22   0.600   -0.532 -0.357 -0.759   0.659  0.691  -0.778
 4  0.0384 -1.38  -0.918  1.12    -1.09   0.949  0.0276  0.456  0.510   1.10 
 5 -0.0148 -0.663  0.401  0.00200 -0.790 -1.98   0.714   0.613  0.658   1.02 
 6  0.528   0.164 -0.104 -0.977   -0.889 -0.589  1.39    0.916  0.496   0.326
 7  1.08   -1.21   0.116  0.685    1.22   0.132  0.608  -0.322 -1.06   -0.624
 8 -0.620   1.45   0.666 -1.39    -1.20  -0.175  0.0665  1.21   1.95   -0.237
 9 -0.143  -1.93  -0.683  0.603   -1.24   0.623 -0.564  -0.417  0.0639  1.34 
10  0.125   0.869 -1.47   0.953    0.608 -1.80   0.272   1.16   1.17   -1.09 
# ℹ 40 more rows
…
